\relax 
\@writefile{toc}{\contentsline {section}{\numberline {1}Funzioni}{1}}
\@writefile{toc}{\contentsline {subsection}{\numberline {1.1}Definizione}{1}}
\@writefile{toc}{\contentsline {subsection}{\numberline {1.2}Terminologia}{1}}
\@writefile{toc}{\contentsline {subsection}{\numberline {1.3}Funzione Reale}{1}}
\@writefile{toc}{\contentsline {subsection}{\numberline {1.4}Funzione Iniettiva}{1}}
\@writefile{toc}{\contentsline {subsubsection}{\numberline {1.4.1}Esempi di Funzioni Iniettive}{2}}
\@writefile{toc}{\contentsline {subsection}{\numberline {1.5}Funzioni Suriettive}{2}}
\@writefile{toc}{\contentsline {subsubsection}{\numberline {1.5.1}Esempi di Funzioni Suriettive}{2}}
\@writefile{toc}{\contentsline {subsection}{\numberline {1.6}Funzioni Biettive}{2}}
\@writefile{toc}{\contentsline {subsubsection}{\numberline {1.6.1}Funzioni Inverse}{2}}
\@writefile{toc}{\contentsline {subsubsection}{\numberline {1.6.2}Esempi di Funzioni Invertibili}{2}}
\@writefile{toc}{\contentsline {subsection}{\numberline {1.7}Funzioni Pari}{3}}
\@writefile{toc}{\contentsline {subsubsection}{\numberline {1.7.1}Esempi di funzioni pari}{3}}
\@writefile{toc}{\contentsline {subsection}{\numberline {1.8}Funzioni dispari}{3}}
\@writefile{toc}{\contentsline {subsubsection}{\numberline {1.8.1}Esempi di Funzioni Dispari}{3}}
\@writefile{toc}{\contentsline {subparagraph}{Attenzione:}{3}}
\@writefile{toc}{\contentsline {subsection}{\numberline {1.9}Funzioni Superiormente Limitate}{3}}
\@writefile{toc}{\contentsline {subsection}{\numberline {1.10}Funzioni Inferiormente Limitate}{3}}
\@writefile{toc}{\contentsline {subsection}{\numberline {1.11}Funzioni Monotone Crescenti}{3}}
\@writefile{toc}{\contentsline {subsection}{\numberline {1.12}Funzioni Monotone Decrescenti}{4}}
\@writefile{toc}{\contentsline {subsection}{\numberline {1.13}Funzioni Algebriche}{4}}
\@writefile{toc}{\contentsline {subparagraph}{Esempio:}{4}}
\@writefile{toc}{\contentsline {subsection}{\numberline {1.14}Funzioni Trascendenti}{4}}
\@writefile{toc}{\contentsline {subparagraph}{Esempio:}{4}}
\@writefile{toc}{\contentsline {subsection}{\numberline {1.15}Funzioni Periodiche}{4}}
\@writefile{toc}{\contentsline {subsubsection}{\numberline {1.15.1}Esempi di funzioni Periodiche}{4}}
\@writefile{toc}{\contentsline {subsection}{\numberline {1.16}Funzioni Trigonometriche}{4}}
\@writefile{toc}{\contentsline {subsubsection}{\numberline {1.16.1}Funzione Coseno}{4}}
\@writefile{toc}{\contentsline {subparagraph}{Attenzione:}{5}}
\@writefile{toc}{\contentsline {subsubsection}{\numberline {1.16.2}Funzione Seno}{5}}
\@writefile{toc}{\contentsline {subsubsection}{\numberline {1.16.3}Funzione Tangente}{6}}
\@writefile{toc}{\contentsline {subsubsection}{\numberline {1.16.4}Funzioni Trigonometriche Inverse}{6}}
\@writefile{toc}{\contentsline {subparagraph}{Esempio}{6}}
\@writefile{toc}{\contentsline {subsubsection}{\numberline {1.16.5}Funzione Trigonometriche Derivate}{6}}
\@writefile{toc}{\contentsline {subparagraph}{Cosecante}{7}}
\@writefile{toc}{\contentsline {subparagraph}{Secante}{7}}
\@writefile{toc}{\contentsline {subparagraph}{Cotangente}{7}}
\@writefile{toc}{\contentsline {subsubsection}{\numberline {1.16.6}Angoli Fondamentali Trigonometria}{7}}
\@writefile{toc}{\contentsline {subsubsection}{\numberline {1.16.7}Valori delle Funzioni Trigonometriche per gli Angoli Notevoli}{7}}
\@writefile{toc}{\contentsline {subsubsection}{\numberline {1.16.8}Formule Fondamentali Trigonometria}{7}}
\@writefile{toc}{\contentsline {subparagraph}{NB:}{8}}
\@writefile{toc}{\contentsline {subsection}{\numberline {1.17}Funzione Esponenziale}{8}}
\@writefile{toc}{\contentsline {subsubsection}{\numberline {1.17.1}Prorpiet\IeC {\`a} delle potenze}{8}}
\@writefile{toc}{\contentsline {subsubsection}{\numberline {1.17.2}Prodotti notevoli}{9}}
\@writefile{toc}{\contentsline {subsection}{\numberline {1.18}Funzioni logaritmiche}{9}}
\@writefile{toc}{\contentsline {subparagraph}{Esempio:}{9}}
\@writefile{toc}{\contentsline {subsubsection}{\numberline {1.18.1}Propriet\IeC {\`a} dei logaritmi}{9}}
\@writefile{toc}{\contentsline {subsubsection}{\numberline {1.18.2}Formula per il cambio di base del logaritmo}{10}}
\@writefile{toc}{\contentsline {subparagraph}{Suggerimento:}{10}}
\@writefile{toc}{\contentsline {subsection}{\numberline {1.19}Domini di Funzioni Algebriche}{10}}
\@writefile{toc}{\contentsline {subsubsection}{\numberline {1.19.1}Come trovare il dominio}{10}}
\@writefile{toc}{\contentsline {subsubsection}{\numberline {1.19.2}Dominio di un polinomio di grado n}{10}}
\@writefile{toc}{\contentsline {subsubsection}{\numberline {1.19.3}Dominio funzione razionale}{10}}
\@writefile{toc}{\contentsline {subparagraph}{Esempio:}{11}}
