\relax 
\@writefile{toc}{\contentsline {section}{\numberline {1}Funzioni}{1}}
\@writefile{toc}{\contentsline {subsection}{\numberline {1.1}Definizione}{1}}
\@writefile{toc}{\contentsline {subsection}{\numberline {1.2}Terminologia}{1}}
\@writefile{toc}{\contentsline {subsection}{\numberline {1.3}Funzione Iniettiva}{1}}
